{
  "shell_port": 54667,
  "iopub_port": 42497,
  "stdin_port": 45067,
  "control_port": 42011,
  "hb_port": 51855,
  "ip": "127.0.0.1",
  "key": "444fd942-8713fc087b5e8b7a969c095f",
  "transport": "tcp",
  "signature_scheme": "hmac-sha256",
  "kernel_name": ""
}